info face="Californian FB" size=32 bold=0 italic=0 charset="" unicode=1 stretchH=100 smooth=1 aa=1 padding=0,0,0,0 spacing=0,0 outline=0
common lineHeight=31 base=24 scaleW=256 scaleH=256 pages=1 packed=0 alphaChnl=0 redChnl=0 greenChnl=0 blueChnl=0
page id=0 file="calif_0.png"
chars count=191
char id=32   x=251   y=42    width=3     height=1     xoffset=-1    yoffset=30    xadvance=6     page=0  chnl=15
char id=33   x=251   y=22    width=4     height=18    xoffset=0     yoffset=6     xadvance=5     page=0  chnl=15
char id=34   x=79    y=168   width=5     height=6     xoffset=1     yoffset=6     xadvance=7     page=0  chnl=15
char id=35   x=111   y=47    width=15    height=21    xoffset=0     yoffset=4     xadvance=15    page=0  chnl=15
char id=36   x=136   y=0     width=12    height=24    xoffset=1     yoffset=4     xadvance=14    page=0  chnl=15
char id=37   x=209   y=22    width=22    height=21    xoffset=0     yoffset=6     xadvance=22    page=0  chnl=15
char id=38   x=143   y=66    width=24    height=18    xoffset=0     yoffset=6     xadvance=24    page=0  chnl=15
char id=39   x=253   y=117   width=3     height=6     xoffset=1     yoffset=6     xadvance=5     page=0  chnl=15
char id=40   x=44    y=0     width=10    height=25    xoffset=1     yoffset=6     xadvance=11    page=0  chnl=15
char id=41   x=54    y=0     width=10    height=25    xoffset=0     yoffset=6     xadvance=11    page=0  chnl=15
char id=42   x=20    y=171   width=11    height=9     xoffset=1     yoffset=6     xadvance=13    page=0  chnl=15
char id=43   x=0     y=171   width=10    height=10    xoffset=1     yoffset=11    xadvance=13    page=0  chnl=15
char id=44   x=84    y=168   width=4     height=6     xoffset=1     yoffset=22    xadvance=5     page=0  chnl=15
char id=45   x=119   y=167   width=9     height=4     xoffset=0     yoffset=15    xadvance=9     page=0  chnl=15
char id=46   x=39    y=68    width=4     height=2     xoffset=1     yoffset=22    xadvance=6     page=0  chnl=15
char id=47   x=184   y=22    width=9     height=22    xoffset=0     yoffset=4     xadvance=9     page=0  chnl=15
char id=48   x=164   y=102   width=14    height=18    xoffset=0     yoffset=6     xadvance=14    page=0  chnl=15
char id=49   x=247   y=81    width=9     height=18    xoffset=0     yoffset=6     xadvance=9     page=0  chnl=15
char id=50   x=0     y=125   width=13    height=18    xoffset=0     yoffset=6     xadvance=13    page=0  chnl=15
char id=51   x=60    y=125   width=11    height=18    xoffset=0     yoffset=6     xadvance=12    page=0  chnl=15
char id=52   x=220   y=100   width=14    height=18    xoffset=0     yoffset=6     xadvance=14    page=0  chnl=15
char id=53   x=37    y=125   width=12    height=18    xoffset=0     yoffset=6     xadvance=13    page=0  chnl=15
char id=54   x=25    y=125   width=12    height=18    xoffset=0     yoffset=6     xadvance=13    page=0  chnl=15
char id=55   x=87    y=68    width=13    height=19    xoffset=0     yoffset=6     xadvance=12    page=0  chnl=15
char id=56   x=71    y=123   width=11    height=18    xoffset=1     yoffset=6     xadvance=12    page=0  chnl=15
char id=57   x=13    y=125   width=12    height=18    xoffset=1     yoffset=6     xadvance=13    page=0  chnl=15
char id=58   x=219   y=149   width=4     height=12    xoffset=1     yoffset=12    xadvance=6     page=0  chnl=15
char id=59   x=59    y=143   width=4     height=16    xoffset=1     yoffset=12    xadvance=5     page=0  chnl=15
char id=60   x=232   y=147   width=8     height=11    xoffset=0     yoffset=11    xadvance=8     page=0  chnl=15
char id=61   x=110   y=167   width=9     height=4     xoffset=0     yoffset=14    xadvance=10    page=0  chnl=15
char id=62   x=240   y=147   width=8     height=11    xoffset=0     yoffset=11    xadvance=8     page=0  chnl=15
char id=63   x=101   y=123   width=9     height=17    xoffset=0     yoffset=7     xadvance=10    page=0  chnl=15
char id=64   x=98    y=87    width=19    height=18    xoffset=0     yoffset=6     xadvance=21    page=0  chnl=15
char id=65   x=136   y=86    width=19    height=18    xoffset=-1    yoffset=6     xadvance=17    page=0  chnl=15
char id=66   x=192   y=102   width=14    height=18    xoffset=0     yoffset=6     xadvance=14    page=0  chnl=15
char id=67   x=0     y=107   width=18    height=18    xoffset=0     yoffset=6     xadvance=18    page=0  chnl=15
char id=68   x=211   y=82    width=18    height=18    xoffset=0     yoffset=6     xadvance=18    page=0  chnl=15
char id=69   x=135   y=104   width=15    height=18    xoffset=1     yoffset=6     xadvance=16    page=0  chnl=15
char id=70   x=105   y=105   width=15    height=18    xoffset=0     yoffset=6     xadvance=15    page=0  chnl=15
char id=71   x=36    y=107   width=18    height=18    xoffset=0     yoffset=6     xadvance=18    page=0  chnl=15
char id=72   x=174   y=84    width=19    height=18    xoffset=0     yoffset=6     xadvance=19    page=0  chnl=15
char id=73   x=247   y=99    width=8     height=18    xoffset=0     yoffset=6     xadvance=8     page=0  chnl=15
char id=74   x=31    y=0     width=13    height=25    xoffset=-4    yoffset=6     xadvance=9     page=0  chnl=15
char id=75   x=155   y=84    width=19    height=18    xoffset=0     yoffset=6     xadvance=18    page=0  chnl=15
char id=76   x=120   y=104   width=15    height=18    xoffset=1     yoffset=6     xadvance=15    page=0  chnl=15
char id=77   x=191   y=64    width=22    height=18    xoffset=0     yoffset=6     xadvance=22    page=0  chnl=15
char id=78   x=0     y=89    width=20    height=18    xoffset=0     yoffset=6     xadvance=20    page=0  chnl=15
char id=79   x=60    y=87    width=19    height=18    xoffset=0     yoffset=6     xadvance=19    page=0  chnl=15
char id=80   x=150   y=104   width=14    height=18    xoffset=0     yoffset=6     xadvance=14    page=0  chnl=15
char id=81   x=96    y=0     width=21    height=24    xoffset=0     yoffset=6     xadvance=19    page=0  chnl=15
char id=82   x=229   y=82    width=18    height=18    xoffset=0     yoffset=6     xadvance=17    page=0  chnl=15
char id=83   x=49    y=125   width=11    height=18    xoffset=1     yoffset=6     xadvance=13    page=0  chnl=15
char id=84   x=54    y=107   width=17    height=18    xoffset=-1    yoffset=6     xadvance=16    page=0  chnl=15
char id=85   x=234   y=63    width=20    height=18    xoffset=0     yoffset=6     xadvance=20    page=0  chnl=15
char id=86   x=79    y=87    width=19    height=18    xoffset=-1    yoffset=6     xadvance=17    page=0  chnl=15
char id=87   x=112   y=68    width=31    height=18    xoffset=-1    yoffset=6     xadvance=27    page=0  chnl=15
char id=88   x=117   y=86    width=19    height=18    xoffset=-1    yoffset=6     xadvance=18    page=0  chnl=15
char id=89   x=88    y=105   width=17    height=18    xoffset=-1    yoffset=6     xadvance=16    page=0  chnl=15
char id=90   x=71    y=105   width=17    height=18    xoffset=0     yoffset=6     xadvance=18    page=0  chnl=15
char id=91   x=23    y=0     width=8     height=27    xoffset=2     yoffset=4     xadvance=10    page=0  chnl=15
char id=92   x=126   y=46    width=9     height=21    xoffset=0     yoffset=4     xadvance=9     page=0  chnl=15
char id=93   x=15    y=0     width=8     height=27    xoffset=-1    yoffset=4     xadvance=10    page=0  chnl=15
char id=94   x=69    y=170   width=10    height=6     xoffset=0     yoffset=4     xadvance=10    page=0  chnl=15
char id=95   x=148   y=23    width=12    height=1     xoffset=-1    yoffset=28    xadvance=10    page=0  chnl=15
char id=96   x=128   y=167   width=7     height=3     xoffset=0     yoffset=8     xadvance=6     page=0  chnl=15
char id=97   x=135   y=153   width=12    height=12    xoffset=0     yoffset=12    xadvance=11    page=0  chnl=15
char id=98   x=189   y=44    width=15    height=20    xoffset=0     yoffset=4     xadvance=15    page=0  chnl=15
char id=99   x=159   y=153   width=12    height=12    xoffset=0     yoffset=12    xadvance=12    page=0  chnl=15
char id=100  x=159   y=46    width=15    height=20    xoffset=0     yoffset=4     xadvance=14    page=0  chnl=15
char id=101  x=147   y=153   width=12    height=12    xoffset=0     yoffset=12    xadvance=12    page=0  chnl=15
char id=102  x=216   y=43    width=10    height=20    xoffset=0     yoffset=4     xadvance=8     page=0  chnl=15
char id=103  x=74    y=68    width=13    height=19    xoffset=0     yoffset=12    xadvance=13    page=0  chnl=15
char id=104  x=174   y=45    width=15    height=20    xoffset=0     yoffset=4     xadvance=14    page=0  chnl=15
char id=105  x=82    y=123   width=7     height=18    xoffset=0     yoffset=6     xadvance=7     page=0  chnl=15
char id=106  x=84    y=0     width=8     height=25    xoffset=-2    yoffset=6     xadvance=7     page=0  chnl=15
char id=107  x=143   y=46    width=16    height=20    xoffset=-1    yoffset=4     xadvance=14    page=0  chnl=15
char id=108  x=226   y=43    width=9     height=20    xoffset=-1    yoffset=4     xadvance=7     page=0  chnl=15
char id=109  x=23    y=159   width=22    height=12    xoffset=0     yoffset=12    xadvance=21    page=0  chnl=15
char id=110  x=79    y=156   width=15    height=12    xoffset=0     yoffset=12    xadvance=14    page=0  chnl=15
char id=111  x=109   y=155   width=13    height=12    xoffset=0     yoffset=12    xadvance=13    page=0  chnl=15
char id=112  x=30    y=70    width=15    height=19    xoffset=0     yoffset=12    xadvance=15    page=0  chnl=15
char id=113  x=0     y=70    width=15    height=19    xoffset=0     yoffset=12    xadvance=14    page=0  chnl=15
char id=114  x=182   y=151   width=11    height=12    xoffset=0     yoffset=12    xadvance=10    page=0  chnl=15
char id=115  x=171   y=151   width=11    height=12    xoffset=0     yoffset=12    xadvance=11    page=0  chnl=15
char id=116  x=166   y=136   width=10    height=15    xoffset=0     yoffset=9     xadvance=9     page=0  chnl=15
char id=117  x=94    y=155   width=15    height=12    xoffset=-1    yoffset=12    xadvance=14    page=0  chnl=15
char id=118  x=242   y=134   width=14    height=12    xoffset=-1    yoffset=12    xadvance=13    page=0  chnl=15
char id=119  x=0     y=159   width=23    height=12    xoffset=-1    yoffset=12    xadvance=21    page=0  chnl=15
char id=120  x=63    y=158   width=16    height=12    xoffset=-1    yoffset=12    xadvance=14    page=0  chnl=15
char id=121  x=60    y=68    width=14    height=19    xoffset=-1    yoffset=12    xadvance=13    page=0  chnl=15
char id=122  x=122   y=155   width=13    height=12    xoffset=0     yoffset=12    xadvance=12    page=0  chnl=15
char id=123  x=74    y=0     width=10    height=25    xoffset=0     yoffset=6     xadvance=9     page=0  chnl=15
char id=124  x=92    y=0     width=2     height=25    xoffset=3     yoffset=4     xadvance=8     page=0  chnl=15
char id=125  x=64    y=0     width=10    height=25    xoffset=-1    yoffset=6     xadvance=9     page=0  chnl=15
char id=126  x=45    y=87    width=9     height=2     xoffset=-1    yoffset=17    xadvance=8     page=0  chnl=15
char id=160  x=180   y=22    width=3     height=1     xoffset=-1    yoffset=30    xadvance=3     page=0  chnl=15
char id=161  x=118   y=123   width=3     height=17    xoffset=1     yoffset=8     xadvance=5     page=0  chnl=15
char id=162  x=155   y=138   width=11    height=15    xoffset=0     yoffset=7     xadvance=12    page=0  chnl=15
char id=163  x=178   y=102   width=14    height=18    xoffset=0     yoffset=6     xadvance=14    page=0  chnl=15
char id=164  x=184   y=136   width=14    height=14    xoffset=0     yoffset=10    xadvance=15    page=0  chnl=15
char id=165  x=193   y=82    width=18    height=18    xoffset=-1    yoffset=6     xadvance=16    page=0  chnl=15
char id=166  x=94    y=0     width=2     height=25    xoffset=3     yoffset=4     xadvance=8     page=0  chnl=15
char id=167  x=24    y=143   width=11    height=16    xoffset=0     yoffset=7     xadvance=12    page=0  chnl=15
char id=168  x=31    y=25    width=7     height=2     xoffset=0     yoffset=9     xadvance=7     page=0  chnl=15
char id=169  x=211   y=136   width=16    height=13    xoffset=0     yoffset=6     xadvance=16    page=0  chnl=15
char id=170  x=248   y=146   width=8     height=10    xoffset=0     yoffset=6     xadvance=8     page=0  chnl=15
char id=171  x=41    y=171   width=10    height=9     xoffset=1     yoffset=13    xadvance=11    page=0  chnl=15
char id=172  x=88    y=168   width=10    height=5     xoffset=1     yoffset=16    xadvance=13    page=0  chnl=15
char id=173  x=96    y=24    width=10    height=1     xoffset=1     yoffset=15    xadvance=13    page=0  chnl=15
char id=174  x=227   y=134   width=15    height=13    xoffset=0     yoffset=6     xadvance=15    page=0  chnl=15
char id=175  x=106   y=24    width=7     height=1     xoffset=0     yoffset=10    xadvance=8     page=0  chnl=15
char id=176  x=98    y=167   width=6     height=5     xoffset=1     yoffset=6     xadvance=8     page=0  chnl=15
char id=177  x=10    y=171   width=10    height=10    xoffset=1     yoffset=12    xadvance=12    page=0  chnl=15
char id=178  x=193   y=150   width=10    height=12    xoffset=0     yoffset=6     xadvance=10    page=0  chnl=15
char id=179  x=203   y=150   width=9     height=12    xoffset=0     yoffset=6     xadvance=9     page=0  chnl=15
char id=180  x=135   y=165   width=7     height=3     xoffset=0     yoffset=8     xadvance=7     page=0  chnl=15
char id=181  x=15    y=70    width=15    height=19    xoffset=0     yoffset=12    xadvance=15    page=0  chnl=15
char id=182  x=234   y=100   width=13    height=18    xoffset=0     yoffset=6     xadvance=13    page=0  chnl=15
char id=183  x=251   y=40    width=4     height=2     xoffset=0     yoffset=12    xadvance=4     page=0  chnl=15
char id=184  x=104   y=167   width=6     height=5     xoffset=1     yoffset=24    xadvance=6     page=0  chnl=15
char id=185  x=212   y=149   width=7     height=12    xoffset=0     yoffset=6     xadvance=7     page=0  chnl=15
char id=186  x=223   y=149   width=9     height=11    xoffset=0     yoffset=6     xadvance=7     page=0  chnl=15
char id=187  x=51    y=171   width=10    height=9     xoffset=0     yoffset=13    xadvance=11    page=0  chnl=15
char id=188  x=20    y=89    width=20    height=18    xoffset=0     yoffset=6     xadvance=21    page=0  chnl=15
char id=189  x=213   y=64    width=21    height=18    xoffset=0     yoffset=6     xadvance=21    page=0  chnl=15
char id=190  x=40    y=89    width=20    height=18    xoffset=0     yoffset=6     xadvance=21    page=0  chnl=15
char id=191  x=110   y=123   width=8     height=17    xoffset=0     yoffset=8     xadvance=9     page=0  chnl=15
char id=192  x=19    y=27    width=19    height=22    xoffset=-1    yoffset=2     xadvance=17    page=0  chnl=15
char id=193  x=0     y=27    width=19    height=22    xoffset=-1    yoffset=2     xadvance=17    page=0  chnl=15
char id=194  x=95    y=25    width=19    height=22    xoffset=-1    yoffset=2     xadvance=17    page=0  chnl=15
char id=195  x=20    y=49    width=19    height=21    xoffset=-1    yoffset=3     xadvance=17    page=0  chnl=15
char id=196  x=39    y=47    width=19    height=21    xoffset=-1    yoffset=3     xadvance=17    page=0  chnl=15
char id=197  x=117   y=0     width=19    height=24    xoffset=-1    yoffset=0     xadvance=17    page=0  chnl=15
char id=198  x=167   y=66    width=24    height=18    xoffset=-1    yoffset=6     xadvance=23    page=0  chnl=15
char id=199  x=148   y=0     width=18    height=23    xoffset=0     yoffset=6     xadvance=18    page=0  chnl=15
char id=200  x=146   y=24    width=15    height=22    xoffset=1     yoffset=2     xadvance=16    page=0  chnl=15
char id=201  x=131   y=24    width=15    height=22    xoffset=1     yoffset=2     xadvance=16    page=0  chnl=15
char id=202  x=240   y=0     width=15    height=22    xoffset=1     yoffset=2     xadvance=16    page=0  chnl=15
char id=203  x=96    y=47    width=15    height=21    xoffset=1     yoffset=3     xadvance=16    page=0  chnl=15
char id=204  x=175   y=23    width=9     height=22    xoffset=-1    yoffset=2     xadvance=8     page=0  chnl=15
char id=205  x=201   y=22    width=8     height=22    xoffset=0     yoffset=2     xadvance=8     page=0  chnl=15
char id=206  x=193   y=22    width=8     height=22    xoffset=0     yoffset=2     xadvance=8     page=0  chnl=15
char id=207  x=135   y=46    width=8     height=21    xoffset=0     yoffset=3     xadvance=8     page=0  chnl=15
char id=208  x=18    y=107   width=18    height=18    xoffset=0     yoffset=6     xadvance=18    page=0  chnl=15
char id=209  x=0     y=49    width=20    height=21    xoffset=0     yoffset=3     xadvance=20    page=0  chnl=15
char id=210  x=38    y=25    width=19    height=22    xoffset=0     yoffset=2     xadvance=19    page=0  chnl=15
char id=211  x=76    y=25    width=19    height=22    xoffset=0     yoffset=2     xadvance=19    page=0  chnl=15
char id=212  x=57    y=25    width=19    height=22    xoffset=0     yoffset=2     xadvance=19    page=0  chnl=15
char id=213  x=58    y=47    width=19    height=21    xoffset=0     yoffset=3     xadvance=19    page=0  chnl=15
char id=214  x=77    y=47    width=19    height=21    xoffset=0     yoffset=3     xadvance=19    page=0  chnl=15
char id=215  x=61    y=171   width=8     height=7     xoffset=2     yoffset=12    xadvance=13    page=0  chnl=15
char id=216  x=235   y=43    width=20    height=19    xoffset=0     yoffset=6     xadvance=20    page=0  chnl=15
char id=217  x=180   y=0     width=20    height=22    xoffset=0     yoffset=2     xadvance=20    page=0  chnl=15
char id=218  x=200   y=0     width=20    height=22    xoffset=0     yoffset=2     xadvance=20    page=0  chnl=15
char id=219  x=220   y=0     width=20    height=22    xoffset=0     yoffset=2     xadvance=20    page=0  chnl=15
char id=220  x=231   y=22    width=20    height=21    xoffset=0     yoffset=3     xadvance=20    page=0  chnl=15
char id=221  x=114   y=24    width=17    height=22    xoffset=-1    yoffset=2     xadvance=16    page=0  chnl=15
char id=222  x=206   y=100   width=14    height=18    xoffset=1     yoffset=6     xadvance=15    page=0  chnl=15
char id=223  x=45    y=68    width=15    height=19    xoffset=0     yoffset=5     xadvance=15    page=0  chnl=15
char id=224  x=229   y=118   width=12    height=16    xoffset=0     yoffset=8     xadvance=11    page=0  chnl=15
char id=225  x=217   y=118   width=12    height=16    xoffset=0     yoffset=8     xadvance=11    page=0  chnl=15
char id=226  x=241   y=118   width=12    height=16    xoffset=0     yoffset=8     xadvance=11    page=0  chnl=15
char id=227  x=131   y=138   width=12    height=15    xoffset=0     yoffset=9     xadvance=11    page=0  chnl=15
char id=228  x=119   y=140   width=12    height=15    xoffset=0     yoffset=9     xadvance=11    page=0  chnl=15
char id=229  x=100   y=68    width=12    height=19    xoffset=0     yoffset=5     xadvance=11    page=0  chnl=15
char id=230  x=45    y=159   width=18    height=12    xoffset=0     yoffset=12    xadvance=18    page=0  chnl=15
char id=231  x=89    y=123   width=12    height=17    xoffset=0     yoffset=12    xadvance=12    page=0  chnl=15
char id=232  x=205   y=120   width=12    height=16    xoffset=0     yoffset=8     xadvance=12    page=0  chnl=15
char id=233  x=0     y=143   width=12    height=16    xoffset=0     yoffset=8     xadvance=12    page=0  chnl=15
char id=234  x=12    y=143   width=12    height=16    xoffset=0     yoffset=8     xadvance=12    page=0  chnl=15
char id=235  x=143   y=138   width=12    height=15    xoffset=0     yoffset=9     xadvance=12    page=0  chnl=15
char id=236  x=35    y=143   width=9     height=16    xoffset=-2    yoffset=8     xadvance=7     page=0  chnl=15
char id=237  x=52    y=143   width=7     height=16    xoffset=0     yoffset=8     xadvance=7     page=0  chnl=15
char id=238  x=44    y=143   width=8     height=16    xoffset=0     yoffset=8     xadvance=7     page=0  chnl=15
char id=239  x=176   y=136   width=8     height=15    xoffset=-1    yoffset=9     xadvance=7     page=0  chnl=15
char id=240  x=204   y=44    width=12    height=20    xoffset=0     yoffset=4     xadvance=13    page=0  chnl=15
char id=241  x=78    y=141   width=15    height=15    xoffset=0     yoffset=9     xadvance=14    page=0  chnl=15
char id=242  x=179   y=120   width=13    height=16    xoffset=0     yoffset=8     xadvance=13    page=0  chnl=15
char id=243  x=166   y=120   width=13    height=16    xoffset=0     yoffset=8     xadvance=13    page=0  chnl=15
char id=244  x=192   y=120   width=13    height=16    xoffset=0     yoffset=8     xadvance=13    page=0  chnl=15
char id=245  x=106   y=140   width=13    height=15    xoffset=0     yoffset=9     xadvance=13    page=0  chnl=15
char id=246  x=93    y=140   width=13    height=15    xoffset=0     yoffset=9     xadvance=13    page=0  chnl=15
char id=247  x=31    y=171   width=10    height=9     xoffset=2     yoffset=11    xadvance=13    page=0  chnl=15
char id=248  x=198   y=136   width=13    height=14    xoffset=0     yoffset=11    xadvance=13    page=0  chnl=15
char id=249  x=151   y=122   width=15    height=16    xoffset=-1    yoffset=8     xadvance=14    page=0  chnl=15
char id=250  x=136   y=122   width=15    height=16    xoffset=-1    yoffset=8     xadvance=14    page=0  chnl=15
char id=251  x=121   y=122   width=15    height=16    xoffset=-1    yoffset=8     xadvance=14    page=0  chnl=15
char id=252  x=63    y=143   width=15    height=15    xoffset=-1    yoffset=9     xadvance=14    page=0  chnl=15
char id=253  x=166   y=0     width=14    height=23    xoffset=-1    yoffset=8     xadvance=13    page=0  chnl=15
char id=254  x=0     y=0     width=15    height=27    xoffset=0     yoffset=4     xadvance=15    page=0  chnl=15
char id=255  x=161   y=23    width=14    height=22    xoffset=-1    yoffset=9     xadvance=13    page=0  chnl=15
